[
  {
    "id": 1,
    "name": "iPhone 3gs",
    "price": 200,
    "description": "iPhone 3GS — третье поколение смартфонов iPhone, разработанное и выпущенное корпорацией Apple. Был представлен на WWDC 2009 в Moscone Center в Сан-Франциско."
  },
  {
    "id": 2,
    "name": "iPhone 4",
    "price": 400,
    "description": "Cенсорный смартфон, разработанный корпорацией Apple. Это четвёртое поколение iPhone и преемник iPhone 3GS. Позиционируется для осуществления видео-вызовов (под названием FaceTime), использования медиа, в том числе книг и периодических изданий, фильмов, музыки и игр, и для общего доступа к вебу и электронной почте."
  }
]